{
  "5pcs":[
    {
      "rect":[20, 120, 100, 200]
    },
    {
      "rect":[130, 70, 100, 300]
    },
    {
      "rect":[240, 20, 100, 400]
    },
    {
      "rect":[350, 70, 100, 300]
    },
    {
      "rect":[460, 120, 100, 200]
    }
  ],
  "4pcs":[
    {
      "rect":[20, 120, 100, 200]
    }
  ],
  "3pcsEq":[
    {
      "rect":[20, 120, 100, 200]
    }
  ]
}
